{
"data": [
{
"id": 19,
"attributes": {
"title": "avant-garde lamp",
"company": "Modenza",
"description": "Cloud bread VHS hell of banjo bicycle rights jianbing umami mumblecore etsy 8-bit pok pok +1 wolf. Vexillologist yr dreamcatcher waistcoat, authentic chillwave trust fund. Viral typewriter fingerstache pinterest pork belly narwhal. Schlitz venmo everyday carry kitsch pitchfork chillwave iPhone taiyaki trust fund hashtag kinfolk microdosing gochujang live-edge",
"featured": true,
"createdAt": "2023-08-10T10:07:41.876Z",
"updatedAt": "2023-08-10T10:16:43.298Z",
"publishedAt": "2023-08-10T10:07:44.157Z",
"category": "Kids",
"price": "17999",
"shipping": false,
"colors": [
"#33FF57",
"#3366FF"
]
}
},
{
"id": 18,
"attributes": {
"title": "avant-garde lamp",
"company": "Modenza",
"description": "Cloud bread VHS hell of banjo bicycle rights jianbing umami mumblecore etsy 8-bit pok pok +1 wolf. Vexillologist yr dreamcatcher waistcoat, authentic chillwave trust fund. Viral typewriter fingerstache pinterest pork belly narwhal. Schlitz venmo everyday carry kitsch pitchfork chillwave iPhone taiyaki trust fund hashtag kinfolk microdosing gochujang live-edge",
"featured": true,
"createdAt": "2023-08-10T10:07:41.876Z",
"updatedAt": "2023-08-10T10:16:43.298Z",
"publishedAt": "2023-08-10T10:07:44.157Z",
"category": "Kids",
"price": "18999",
"shipping": false,
"colors": [
"#33FF57",
"#3366FF"
]
}
},
{
"id": 17,
"attributes": {
"title": "avant-garde lamp",
"company": "Modenza",
"description": "Cloud bread VHS hell of banjo bicycle rights jianbing umami mumblecore etsy 8-bit pok pok +1 wolf. Vexillologist yr dreamcatcher waistcoat, authentic chillwave trust fund. Viral typewriter fingerstache pinterest pork belly narwhal. Schlitz venmo everyday carry kitsch pitchfork chillwave iPhone taiyaki trust fund hashtag kinfolk microdosing gochujang live-edge",
"featured": true,
"createdAt": "2023-08-10T10:07:41.876Z",
"updatedAt": "2023-08-10T10:16:43.298Z",
"publishedAt": "2023-08-10T10:07:44.157Z",
"category": "Kids",
"price": "16999",
"shipping": false,
"colors": [
"#33FF57",
"#3366FF"
]
}
},
{
"id": 12,
"attributes": {
"title": "chic chair",
"company": "Luxora",
"description": "Cloud bread VHS hell of banjo bicycle rights jianbing umami mumblecore etsy 8-bit pok pok +1 wolf. Vexillologist yr dreamcatcher waistcoat, authentic chillwave trust fund. Viral typewriter fingerstache pinterest pork belly narwhal. Schlitz venmo everyday carry kitsch pitchfork chillwave iPhone taiyaki trust fund hashtag kinfolk microdosing gochujang live-edge",
"featured": false,
"createdAt": "2023-08-10T09:32:58.392Z",
"updatedAt": "2023-08-10T09:33:03.728Z",
"publishedAt": "2023-08-10T09:33:03.598Z",
"category": "Chairs",
"price": "33999",
"shipping": true,
"colors": [
"#FF5733",
"#33FF57",
"#3366FF"
]
}
},
{
"id": 11,
"attributes": {
"title": "chic chair",
"company": "Luxora",
"description": "Cloud bread VHS hell of banjo bicycle rights jianbing umami mumblecore etsy 8-bit pok pok +1 wolf. Vexillologist yr dreamcatcher waistcoat, authentic chillwave trust fund. Viral typewriter fingerstache pinterest pork belly narwhal. Schlitz venmo everyday carry kitsch pitchfork chillwave iPhone taiyaki trust fund hashtag kinfolk microdosing gochujang live-edge",
"featured": false,
"createdAt": "2023-08-10T09:32:58.392Z",
"updatedAt": "2023-08-10T09:33:03.728Z",
"publishedAt": "2023-08-10T09:33:03.598Z",
"category": "Chairs",
"price": "34999",
"shipping": true,
"colors": [
"#FF5733",
"#33FF57",
"#3366FF"
]
}
},
{
"id": 10,
"attributes": {
"title": "chic chair",
"company": "Luxora",
"description": "Cloud bread VHS hell of banjo bicycle rights jianbing umami mumblecore etsy 8-bit pok pok +1 wolf. Vexillologist yr dreamcatcher waistcoat, authentic chillwave trust fund. Viral typewriter fingerstache pinterest pork belly narwhal. Schlitz venmo everyday carry kitsch pitchfork chillwave iPhone taiyaki trust fund hashtag kinfolk microdosing gochujang live-edge",
"featured": false,
"createdAt": "2023-08-10T09:32:58.392Z",
"updatedAt": "2023-08-10T09:33:03.728Z",
"publishedAt": "2023-08-10T09:33:03.598Z",
"category": "Chairs",
"price": "31999",
"shipping": true,
"colors": [
"#FF5733",
"#33FF57",
"#3366FF"
]
}
},
{
"id": 6,
"attributes": {
"title": "coffee table",
"company": "Modenza",
"description": "Cloud bread VHS hell of banjo bicycle rights jianbing umami mumblecore etsy 8-bit pok pok +1 wolf. Vexillologist yr dreamcatcher waistcoat, authentic chillwave trust fund. Viral typewriter fingerstache pinterest pork belly narwhal. Schlitz venmo everyday carry kitsch pitchfork chillwave iPhone taiyaki trust fund hashtag kinfolk microdosing gochujang live-edge",
"featured": true,
"createdAt": "2023-08-02T14:32:02.775Z",
"updatedAt": "2023-08-04T07:35:16.880Z",
"publishedAt": "2023-08-02T14:32:05.491Z",
"category": "Tables",
"price": "17999",
"shipping": false,
"colors": [
"#FF5733",
"#FFFF00"
]
}
},
{
"id": 7,
"attributes": {
"title": "comfy bed",
"company": "Homestead",
"description": "Cloud bread VHS hell of banjo bicycle rights jianbing umami mumblecore etsy 8-bit pok pok +1 wolf. Vexillologist yr dreamcatcher waistcoat, authentic chillwave trust fund. Viral typewriter fingerstache pinterest pork belly narwhal. Schlitz venmo everyday carry kitsch pitchfork chillwave iPhone taiyaki trust fund hashtag kinfolk microdosing gochujang live-edge",
"featured": true,
"createdAt": "2023-08-02T14:34:10.146Z",
"updatedAt": "2023-08-08T14:06:28.575Z",
"publishedAt": "2023-08-02T14:34:13.604Z",
"category": "Beds",
"price": "12999",
"shipping": false,
"colors": [
"#FF5733"
]
}
},
{
"id": 13,
"attributes": {
"title": "contemporary sofa",
"company": "Comfora",
"description": "Cloud bread VHS hell of banjo bicycle rights jianbing umami mumblecore etsy 8-bit pok pok +1 wolf. Vexillologist yr dreamcatcher waistcoat, authentic chillwave trust fund. Viral typewriter fingerstache pinterest pork belly narwhal. Schlitz venmo everyday carry kitsch pitchfork chillwave iPhone taiyaki trust fund hashtag kinfolk microdosing gochujang live-edge",
"featured": false,
"createdAt": "2023-08-10T09:34:24.429Z",
"updatedAt": "2023-08-10T09:34:27.095Z",
"publishedAt": "2023-08-10T09:34:26.981Z",
"category": "Sofas",
"price": "15999",
"shipping": false,
"colors": [
"#FFFF00"
]
}
},
{
"id": 20,
"attributes": {
"title": "cutting-edge bed",
"company": "Homestead",
"description": "Cloud bread VHS hell of banjo bicycle rights jianbing umami mumblecore etsy 8-bit pok pok +1 wolf. Vexillologist yr dreamcatcher waistcoat, authentic chillwave trust fund. Viral typewriter fingerstache pinterest pork belly narwhal. Schlitz venmo everyday carry kitsch pitchfork chillwave iPhone taiyaki trust fund hashtag kinfolk microdosing gochujang live-edge",
"featured": false,
"createdAt": "2023-08-10T10:08:58.922Z",
"updatedAt": "2023-08-10T10:09:01.251Z",
"publishedAt": "2023-08-10T10:09:01.135Z",
"category": "Beds",
"price": "8499",
"shipping": true,
"colors": [
"#FFFF00",
"#3366FF"
]
}
},
{
"id": 16,
"attributes": {
"title": "futuristic shelves",
"company": "Luxora",
"description": "Cloud bread VHS hell of banjo bicycle rights jianbing umami mumblecore etsy 8-bit pok pok +1 wolf. Vexillologist yr dreamcatcher waistcoat, authentic chillwave trust fund. Viral typewriter fingerstache pinterest pork belly narwhal. Schlitz venmo everyday carry kitsch pitchfork chillwave iPhone taiyaki trust fund hashtag kinfolk microdosing gochujang live-edge",
"featured": false,
"createdAt": "2023-08-10T10:02:51.583Z",
"updatedAt": "2023-08-10T10:02:53.797Z",
"publishedAt": "2023-08-10T10:02:53.674Z",
"category": "Kids",
"price": "9499",
"shipping": true,
"colors": [
"#33FF57",
"#FFFF00"
]
}
},
{
"id": 21,
"attributes": {
"title": "glass table",
"company": "Modenza",
"description": "Cloud bread VHS hell of banjo bicycle rights jianbing umami mumblecore etsy 8-bit pok pok +1 wolf. Vexillologist yr dreamcatcher waistcoat, authentic chillwave trust fund. Viral typewriter fingerstache pinterest pork belly narwhal. Schlitz venmo everyday carry kitsch pitchfork chillwave iPhone taiyaki trust fund hashtag kinfolk microdosing gochujang live-edge",
"featured": false,
"createdAt": "2023-08-10T10:10:46.803Z",
"updatedAt": "2023-08-10T10:10:48.971Z",
"publishedAt": "2023-08-10T10:10:48.858Z",
"category": "Tables",
"price": "15999",
"shipping": false,
"colors": [
"#FF5733",
"#3366FF"
]
}
},
{
"id": 22,
"attributes": {
"title": "King Bed",
"company": "Homestead",
"description": "Cloud bread VHS hell of banjo bicycle rights jianbing umami mumblecore etsy 8-bit pok pok +1 wolf. Vexillologist yr dreamcatcher waistcoat, authentic chillwave trust fund. Viral typewriter fingerstache pinterest pork belly narwhal. Schlitz venmo everyday carry kitsch pitchfork chillwave iPhone taiyaki trust fund hashtag kinfolk microdosing gochujang live-edge",
"featured": false,
"createdAt": "2023-08-10T10:11:38.696Z",
"updatedAt": "2023-08-10T10:11:40.915Z",
"publishedAt": "2023-08-10T10:11:40.802Z",
"category": "Beds",
"price": "18999",
"shipping": true,
"colors": [
"#FF5733"
]
}
},
{
"id": 24,
"attributes": {
"title": "Lounge Chair",
"company": "Luxora",
"description": "Cloud bread VHS hell of banjo bicycle rights jianbing umami mumblecore etsy 8-bit pok pok +1 wolf. Vexillologist yr dreamcatcher waistcoat, authentic chillwave trust fund. Viral typewriter fingerstache pinterest pork belly narwhal. Schlitz venmo everyday carry kitsch pitchfork chillwave iPhone taiyaki trust fund hashtag kinfolk microdosing gochujang live-edge",
"featured": false,
"createdAt": "2023-08-10T10:13:29.629Z",
"updatedAt": "2023-08-10T10:15:29.354Z",
"publishedAt": "2023-08-10T10:13:31.792Z",
"category": "Chairs",
"price": "25999",
"shipping": false,
"colors": [
"#FF5733",
"#33FF57",
"#3366FF"
]
}
}
],
"meta": {
"pagination": {
"page": 1,
"pageSize": 10,
"pageCount": 3,
"total": 22
},
"categories": [
"all",
"Tables",
"Chairs",
"Kids",
"Sofas",
"Beds"
],
"companies": [
"all",
"Modenza",
"Luxora",
"Artifex",
"Comfora",
"Homestead"
]
}
}